Project 1: Exploratory Data Analysis
…
PublicSchool <- PublicSchools
colnames(PublicSchool)[colnames(PublicSchool) == "X1"] <- "State"
colnames(PublicSchool)

## [1] "State"       "Expenditure" "Income"

Combined <- full_join(Teen_BIRTHRATES, PublicSchool, by = "State")
CombinedNONA <- Combined %>% na.omit()

library(tidyverse)

CombinedNONA %>% pivot_wider(names_from = County, values_from = "Birth Rate")

## # A tibble: 49,024 x 1,815
##     Year State `State FIPS Cod… `County FIPS Co… `Combined FIPS …
##    <dbl> <chr> <chr>            <chr>                       <dbl>
##  1  2003 Alab… 01               001                          1001
##  2  2004 Alab… 01               001                          1001
##  3  2005 Alab… 01               001                          1001
##  4  2006 Alab… 01               001                          1001
##  5  2007 Alab… 01               001                          1001
##  6  2008 Alab… 01               001                          1001
##  7  2009 Alab… 01               001                          1001
##  8  2010 Alab… 01               001                          1001
##  9  2011 Alab… 01               001                          1001
## 10  2012 Alab… 01               001                          1001
## # … with 49,014 more rows, and 1,810 more variables: `Lower Confidence
## #   Limit` <dbl>, `Upper Confidence Limit` <dbl>, Expenditure <dbl>,
## #   Income <dbl>, Autauga <dbl>, Baldwin <dbl>, Barbour <dbl>, Bibb <dbl>,
## #   Blount <dbl>, Bullock <dbl>, Butler <dbl>, Calhoun <dbl>, Chambers <dbl>,
## #   Cherokee <dbl>, Chilton <dbl>, Choctaw <dbl>, Clarke <dbl>, Clay <dbl>,
## #   Cleburne <dbl>, Coffee <dbl>, Colbert <dbl>, Conecuh <dbl>, Coosa <dbl>,
## #   Covington <dbl>, Crenshaw <dbl>, Cullman <dbl>, Dale <dbl>, Dallas <dbl>,
## #   `De Kalb` <dbl>, Elmore <dbl>, Escambia <dbl>, Etowah <dbl>, Fayette <dbl>,
## #   Franklin <dbl>, Geneva <dbl>, Greene <dbl>, Hale <dbl>, Henry <dbl>,
…
Compute summary statistics for each of your variables using summarize alone and with group_by (if you have more than 10 variables, fine to just focus on 10) (20 pts)

Use at least 5 unique functions inside of summarize (e.g., mean, sd)

For at least 2, use summarize after grouping by a categorical variable. Create one by dichotomizing a numeric if necessary

If applicable, at least 1 of these should group by two categorical variables

Summarize/discuss all (or the most interesting) results in no more than two paragraphs (4 pts)

library(dplyr)
CombinedNONA %>% arrange(desc(`Birth Rate`))

## # A tibble: 49,024 x 11
##     Year State County `State FIPS Cod… `County FIPS Co… `Combined FIPS …
##    <dbl> <chr> <chr>  <chr>            <chr>                       <dbl>
##  1  2003 Nort… Sioux  38               085                         38085
##  2  2003 Texas Loving 48               301                         48301
##  3  2004 Nort… Sioux  38               085                         38085
##  4  2006 Nort… Sioux  38               085                         38085
##  5  2008 Texas Brooks 48               047                         48047
##  6  2007 Texas Brooks 48               047                         48047
##  7  2007 Nort… Sioux  38               085                         38085
##  8  2005 Nort… Sioux  38               085                         38085
##  9  2009 Texas Brooks 48               047                         48047
## 10  2006 Texas Brooks 48               047                         48047
## # … with 49,014 more rows, and 5 more variables: `Birth Rate` <dbl>, `Lower
## #   Confidence Limit` <dbl>, `Upper Confidence Limit` <dbl>, Expenditure <dbl>,
## #   Income <dbl>

CombinedNONA %>% arrange(desc(Income))

## # A tibble: 49,024 x 11
##     Year State County `State FIPS Cod… `County FIPS Co… `Combined FIPS …
##    <dbl> <chr> <chr>  <chr>            <chr>                       <dbl>
##  1  2003 Alas… Aleut… 02               013                          2013
##  2  2004 Alas… Aleut… 02               013                          2013
##  3  2005 Alas… Aleut… 02               013                          2013
##  4  2006 Alas… Aleut… 02               013                          2013
##  5  2007 Alas… Aleut… 02               013                          2013
##  6  2008 Alas… Aleut… 02               013                          2013
##  7  2009 Alas… Aleut… 02               013                          2013
##  8  2010 Alas… Aleut… 02               013                          2013
##  9  2011 Alas… Aleut… 02               013                          2013
## 10  2012 Alas… Aleut… 02               013                          2013
## # … with 49,014 more rows, and 5 more variables: `Birth Rate` <dbl>, `Lower
## #   Confidence Limit` <dbl>, `Upper Confidence Limit` <dbl>, Expenditure <dbl>,
## #   Income <dbl>

CombinedNONA %>% select(State, County, Year, Income, Expenditure, 
    `Birth Rate`)

## # A tibble: 49,024 x 6
##    State   County   Year Income Expenditure `Birth Rate`
##    <chr>   <chr>   <dbl>  <dbl>       <dbl>        <dbl>
##  1 Alabama Autauga  2003   6247         275         48.4
##  2 Alabama Autauga  2004   6247         275         46.4
##  3 Alabama Autauga  2005   6247         275         44.1
##  4 Alabama Autauga  2006   6247         275         44.3
##  5 Alabama Autauga  2007   6247         275         43.7
##  6 Alabama Autauga  2008   6247         275         41.7
##  7 Alabama Autauga  2009   6247         275         38.8
##  8 Alabama Autauga  2010   6247         275         34.8
##  9 Alabama Autauga  2011   6247         275         32  
## 10 Alabama Autauga  2012   6247         275         30.4
## # … with 49,014 more rows
…
CombinedNONA %>% group_by("State") %>% summarize(`Birth Rate`)

## # A tibble: 49,024 x 2
## # Groups:   "State" [1]
##    `"State"` `Birth Rate`
##    <chr>            <dbl>
##  1 State             48.4
##  2 State             46.4
##  3 State             44.1
##  4 State             44.3
##  5 State             43.7
##  6 State             41.7
##  7 State             38.8
##  8 State             34.8
##  9 State             32  
## 10 State             30.4
## # … with 49,014 more rows
…
